{
    "clusters": [
        {
            "nodes": [
                {
                    "node": {
                        "hostnames": {
                            "manage": [
                                "worker-1"
                            ],
                            "storage": [
                                "192.168.100.5"
                            ]
                        },
                        "zone": 1
                    },
                    "devices": [
                        "/dev/loop8"
                    ]
                }
            ]
        }
    ]
}
